…
Time series comparing the average number of steps/5-minute interval across weekdays and weekends

interval2<- activityData2%>%
        group_by(interval, daytype)%>%
        filter(!is.na(steps))%>%
        summarise(avg_steps2 = mean(steps, na.rm=TRUE))
interval2

## Source: local data frame [576 x 3]
## Groups: interval [?]
## 
##    interval daytype  avg_steps2
##       <int>   <chr>       <dbl>
## 1         0 weekday 2.251153040
## 2         0 weekend 0.214622642
## 3         5 weekday 0.445283019
## 4         5 weekend 0.042452830
## 5        10 weekday 0.173165618
## 6        10 weekend 0.016509434
## 7        15 weekday 0.197903564
## 8        15 weekend 0.018867925
## 9        20 weekday 0.098951782
## 10       20 weekend 0.009433962
## # ... with 566 more rows
…
