…
# Create a time series plot of the average number of steps taken


```r
interval<- activityData%>%
        group_by(interval)%>%
        filter(!is.na(steps))%>%
        summarise(avg_steps = mean(steps, na.rm=TRUE))
interval
```

```
## # A tibble: 288 × 2
##    interval avg_steps
##       <int>     <dbl>
## 1         0 1.7169811
## 2         5 0.3396226
## 3        10 0.1320755
## 4        15 0.1509434
## 5        20 0.0754717
## 6        25 2.0943396
## 7        30 0.5283019
## 8        35 0.8679245
## 9        40 0.0000000
## 10       45 1.4716981
## # ... with 278 more rows
```
…
Time series comparing the average number of steps/5-minute interval across weekdays and weekends

```r
interval2<- activityData2%>%
        group_by(interval, daytype)%>%
        filter(!is.na(steps))%>%
        summarise(avg_steps2 = mean(steps, na.rm=TRUE))
interval2
```

```
## Source: local data frame [576 x 3]
## Groups: interval [?]
## 
##    interval daytype  avg_steps2
##       <int>   <chr>       <dbl>
## 1         0 weekday 2.251153040
## 2         0 weekend 0.214622642
## 3         5 weekday 0.445283019
## 4         5 weekend 0.042452830
## 5        10 weekday 0.173165618
## 6        10 weekend 0.016509434
## 7        15 weekday 0.197903564
## 8        15 weekend 0.018867925
## 9        20 weekday 0.098951782
## 10       20 weekend 0.009433962
## # ... with 566 more rows
```
…
